%!PS-Adobe-3.0
%%Title: run_extruders.py
%%For: Michael Chiang
%%Creator: a2ps version 4.14
%%CreationDate: Mon Feb 24 11:18:25 2020
%%BoundingBox: 24 24 571 818
%%DocumentData: Clean7Bit
%%Orientation: Portrait
%%Pages: 10
%%PageOrder: Ascend
%%DocumentMedia: A4 595 842 0 () ()
%%DocumentNeededResources: font Courier
%%+ font Courier-Bold
%%+ font Helvetica
%%+ font Helvetica-Bold
%%+ font Symbol
%%+ font Times-Bold
%%+ font Times-Roman
%%DocumentProcessColors: Black Blue Green Red 
%%DocumentSuppliedResources: procset a2ps-color-prolog
%%+ encoding ISO-8859-1Encoding
%%EndComments
/a2psdict 200 dict def
a2psdict begin
%%BeginProlog
%%Copyright: (c) 1988, 89, 90, 91, 92, 93 Miguel Santana
%%Copyright: (c) 1995, 96, 97, 98 Akim Demaille, Miguel Santana
% Check PostScript language level.
/languagelevel where {
  pop /gs_languagelevel languagelevel def
} {
  /gs_languagelevel 1 def
} ifelse

% EPSF import as in the Red Book
/BeginInclude {
  /b4_Inc_state save def    		% Save state for cleanup
  /dict_count countdictstack def	% Count objects on dict stack
  /op_count count 1 sub def		% Count objects on operand stack 
  userdict begin
    0 setgray 0 setlinecap
    1 setlinewidth 0 setlinejoin
    10 setmiterlimit [ ] 0 setdash newpath
    gs_languagelevel 1 ne {
      false setstrokeadjust false setoverprint 
    } if
} bind def

/EndInclude {
  count op_count sub { pos } repeat	% Clean up stacks
  countdictstack dict_count sub { end } repeat
  b4_Inc_state restore
} bind def

/BeginEPSF {
  BeginInclude
  /showpage { } def
} bind def

/EndEPSF {
  EndInclude
} bind def

% Page prefeed
/page_prefeed {         % bool -> -
  statusdict /prefeed known {
    statusdict exch /prefeed exch put
  } {
    pop
  } ifelse
} bind def

/deffont {
  findfont exch scalefont def
} bind def

/reencode_font {
  findfont reencode 2 copy definefont pop def
} bind def

% Function c-show (str => -)
% centers text only according to x axis.
/c-show { 
  dup stringwidth pop
  2 div neg 0 rmoveto
  show
} bind def

% Function l-show (str => -)
% prints texts so that it ends at currentpoint
/l-show {
  dup stringwidth pop neg 
  0 
  rmoveto show
} bind def

% center-fit show (str w => -)
% show centered, and scale currentfont so that the width is less than w
/cfshow {
  exch dup stringwidth pop
  % If the title is too big, try to make it smaller
  3 2 roll 2 copy
  gt
  { % if, i.e. too big
    exch div
    currentfont exch scalefont setfont
  } { % ifelse
    pop pop 
  }
  ifelse
  c-show			% center title
} bind def

% Return the y size of the current font
% - => fontsize
/currentfontsize {
  currentfont /FontType get 0 eq {
    currentfont /FontMatrix get 3 get
  }{
    currentfont /FontMatrix get 3 get 1000 mul
  } ifelse
} bind def

% reencode the font
% <encoding-vector> <fontdict> -> <newfontdict>
/reencode { %def
  dup length 5 add dict begin
    { %forall
      % <vector> <key> <val>
      1 index /FID ne 
      { def }{ pop pop } ifelse
    } forall
    /Encoding exch def % -

    % Use the font's bounding box to determine the ascent, descent,
    % and overall height; don't forget that these values have to be
    % transformed using the font's matrix.
    % We use `load' because sometimes BBox is executable, sometimes not.
    % Since we need 4 numbers an not an array avoid BBox from being executed
    /FontBBox load aload pop
    FontMatrix transform /Ascent exch def pop
    FontMatrix transform /Descent exch def pop
    /FontHeight Ascent Descent sub def

    % Get the underline position and thickness if they're defined.
    % Use 1 if they are not defined.
    currentdict /FontInfo 2 copy known
    { get
      /UnderlinePosition 2 copy % <FontInfo> /UP <FontInfo> /UP
      2 copy known
      { get }{ pop pop 1 } ifelse
      0 exch FontMatrix transform exch pop
      def % <FontInfo>

      /UnderlineThickness 2 copy % <FontInfo> /UT <FontInfo> /UT
      2 copy known
      { get }{ pop pop 1 } ifelse
      0 exch FontMatrix transform exch pop
      def % <FontInfo>
      pop % -
    }{ pop pop
    } ifelse

    currentdict
  end 
} bind def

% composite fonts for ASCII-EUC mixed string
% Version 1.2 1/31/1990
% Orignal Ken'ichi HANDA (handa@etl.go.jp)
% Modified Norio Katayama (katayama@rd.nacsis.ac.jp),1998
% Extend & Fix Koji Nakamaru (maru@on.cs.keio.ac.jp), 1999
% Anyone can freely copy, modify, distribute this program.

/copyfont {	% font-dic extra-entry-count  copyfont  font-dic
	1 index maxlength add dict begin
	{	1 index /FID ne 2 index /UniqueID ne and
		{def} {pop pop} ifelse
	} forall
	currentdict
	end
} bind def

/compositefont { % ASCIIFontName EUCFontName RomanScale RomanOffset Rot(T/F) compositefont font
    /RomanRotation exch def
    /RomanOffset exch def
    /RomanScale exch def
    userdict /fixeucfont_dict known not {
	userdict begin
	    /fixeucfont_dict 2 dict begin
		/UpperByteEncoding [
		    16#00 1 16#20 { pop 0 } for
		    16#21 1 16#28 { 16#20 sub } for
		    16#29 1 16#2F { pop 0 } for
		    16#30 1 16#74 { 16#27 sub } for
		    16#75 1 16#FF { pop 0 } for
		] def
	        /LowerByteEncoding [
		    16#00 1 16#A0 { pop /.notdef } for
		    16#A1 1 16#FE { 16#80 sub 16 2 string cvrs
				    (cXX) dup 1 4 -1 roll
				    putinterval cvn } for
		    /.notdef
		] def
		currentdict
	    end def
	end
    } if
    findfont dup /FontType get 0 eq {
	14 dict begin
	    %
	    % 7+8 bit EUC font
	    %
	    12 dict begin
		/EUCFont exch def
		/FontInfo (7+8 bit EUC font) readonly def
		/PaintType 0 def
		/FontType 0 def
		/FontMatrix matrix def
		% /FontName
		/Encoding fixeucfont_dict /UpperByteEncoding get def
		/FMapType 2 def
		EUCFont /WMode known
		{ EUCFont /WMode get /WMode exch def }
		{ /WMode 0 def } ifelse
		/FDepVector [
		    EUCFont /FDepVector get 0 get
		    [ 16#21 1 16#28 {} for 16#30 1 16#74 {} for ]
		    {
			13 dict begin
			    /EUCFont EUCFont def
			    /UpperByte exch 16#80 add def	
			    % /FontName
			    /FontInfo (EUC lower byte font) readonly def
			    /PaintType 0 def
			    /FontType 3 def
			    /FontMatrix matrix def
			    /FontBBox {0 0 0 0} def
			    /Encoding
				fixeucfont_dict /LowerByteEncoding get def
			    % /UniqueID
			    % /WMode
			    /BuildChar {
				gsave
				exch dup /EUCFont get setfont
				/UpperByte get
				2 string
				dup 0 4 -1 roll put
				dup 1 4 -1 roll put
				dup stringwidth setcharwidth
				0 0 moveto show
				grestore
			    } bind def
			    currentdict
			end
			/lowerbytefont exch definefont
		    } forall
		] def
		currentdict
	    end
	    /eucfont exch definefont
	    exch
	    findfont 1 copyfont dup begin
		RomanRotation {
			/FontMatrix FontMatrix
			[ 0 RomanScale neg RomanScale 0 RomanOffset neg 0 ]
			matrix concatmatrix def
		}{
			/FontMatrix FontMatrix
			[ RomanScale 0 0 RomanScale 0 RomanOffset ] matrix concatmatrix
			def
			/CDevProc
			    {pop pop pop pop 0 exch -1000 exch 2 div 880} def
		} ifelse
	    end
	    /asciifont exch definefont
	    exch
	    /FDepVector [ 4 2 roll ] def
	    /FontType 0 def
	    /WMode 0 def
	    /FMapType 4 def
	    /FontMatrix matrix def
	    /Encoding [0 1] def
	    /FontBBox {0 0 0 0} def
%	    /FontHeight 1.0 def % XXXX
	    /FontHeight RomanScale 1.0 ge { RomanScale }{ 1.0 } ifelse def
	    /Descent -0.3 def   % XXXX
	    currentdict
	end
	/tmpfont exch definefont
	pop
	/tmpfont findfont
    }{
	pop findfont 0 copyfont
    } ifelse
} def	

/slantfont {	% FontName slant-degree  slantfont  font'
    exch findfont 1 copyfont begin
    [ 1 0 4 -1 roll 1 0 0 ] FontMatrix exch matrix concatmatrix
    /FontMatrix exch def
    currentdict
    end
} def

% Function print line number (<string> # -)
/# {
  gsave
    sx cw mul neg 2 div 0 rmoveto
    f# setfont
    c-show
  grestore
} bind def

% -------- Some routines to enlight plain b/w printings ---------

% Underline
% width --
/dounderline {
  currentpoint
  gsave
    moveto
    0 currentfont /Descent get currentfontsize mul rmoveto
    0 rlineto
    stroke
  grestore
} bind def

% Underline a string
% string --
/dounderlinestring {
  stringwidth pop
  dounderline
} bind def

/UL {
  /ul exch store
} bind def

% Draw a box of WIDTH wrt current font
% width --
/dobox {
  currentpoint
  gsave
    newpath
    moveto
    0 currentfont /Descent get currentfontsize mul rmoveto
    dup 0 rlineto
    0 currentfont /FontHeight get currentfontsize mul rlineto
    neg 0 rlineto
    closepath
    stroke
  grestore
} bind def

/BX {
  /bx exch store
} bind def

% Box a string
% string --
/doboxstring {
  stringwidth pop
  dobox
} bind def

%
% ------------- Color routines ---------------
%
/FG /setrgbcolor load def

% Draw the background
% width --
/dobackground {
  currentpoint
  gsave
    newpath
    moveto
    0 currentfont /Descent get currentfontsize mul rmoveto
    dup 0 rlineto
    0 currentfont /FontHeight get currentfontsize mul rlineto
    neg 0 rlineto
    closepath
    bgcolor aload pop setrgbcolor
    fill
  grestore
} bind def

% Draw bg for a string
% string --
/dobackgroundstring {
  stringwidth pop
  dobackground
} bind def


/BG {
  dup /bg exch store
  { mark 4 1 roll ] /bgcolor exch store } if
} bind def


/Show {
  bg { dup dobackgroundstring } if
  ul { dup dounderlinestring } if
  bx { dup doboxstring } if
  show
} bind def

% Function T(ab), jumps to the n-th tabulation in the current line
/T {
  cw mul x0 add
  bg { dup currentpoint pop sub dobackground } if
  ul { dup currentpoint pop sub dounderline } if
  bx { dup currentpoint pop sub dobox } if
  y0 moveto
} bind def

% Function n: move to the next line
/n {
  /y0 y0 bfs sub store
  x0 y0 moveto
} bind def

% Function N: show and move to the next line
/N {
  Show
  /y0 y0 bfs sub store
  x0 y0 moveto
} bind def

/S {
  Show
} bind def

%%Copyright: (c) 1988, 89, 90, 91, 92, 93 Miguel Santana
%%Copyright: (c) 1995, 96, 97, 98 Akim Demaille, Miguel Santana
% Function title: prints page header.
% <ct> <rt> <lt> are passed as argument
/title { 
  % 1. Draw the background
  x v get y v get moveto
  0 setgray
  gsave
    0 th 2 div neg rmoveto 
    th setlinewidth
    0.5 0.5 1 setrgbcolor
    pw 0 rlineto stroke
  grestore
  % 2. Border it
  gsave
    0.7 setlinewidth
    pw 0 rlineto
    0 th neg rlineto
    pw neg 0 rlineto
    closepath stroke
  grestore
  % stk: ct rt lt
  x v get y v get th sub 1 add moveto
%%IncludeResource: font Helvetica
  fHelvetica fnfs 0.8 mul scalefont setfont
  % 3. The left title
  gsave
    dup stringwidth pop fnfs 0.8 mul add exch % leave space took on stack
    fnfs 0.8 mul hm rmoveto
    show			% left title
  grestore
  exch
  % stk: ct ltw rt
  % 4. the right title
  gsave
    dup stringwidth pop fnfs 0.8 mul add exch % leave space took on stack
    dup
    pw exch stringwidth pop fnfs 0.8 mul add sub
    hm
    rmoveto
    show			% right title
  grestore
  % stk: ct ltw rtw
  % 5. the center title
  gsave
    pw 3 1 roll
    % stk: ct pw ltw rtw
    3 copy 
    % Move to the center of the left room
    sub add 2 div hm rmoveto
    % What is the available space in here?
    add sub fnfs 0.8 mul sub fnfs 0.8 mul sub
    % stk: ct space_left
%%IncludeResource: font Helvetica-Bold
  fHelvetica-Bold fnfs scalefont setfont
    1 setgray
    cfshow
  grestore
} bind def

% Function border: prints virtual page border
/border { %def
  gsave				% print four sides
    0 setgray
    x v get y v get moveto
    0.7 setlinewidth		% of the square
    pw 0 rlineto
    0 ph neg rlineto
    pw neg 0 rlineto
    closepath stroke
  grestore
} bind def

% Function water: prints a water mark in background
/water { %def
  gsave
    scx scy moveto rotate
%%IncludeResource: font Times-Bold
  fTimes-Bold 100 scalefont setfont
    .97 setgray
    dup stringwidth pop 2 div neg -50 rmoveto
    show
  grestore
} bind def

% Function rhead: prints the right header
/rhead {  %def
  lx ly moveto
  fHelvetica fnfs 0.8 mul scalefont setfont
  l-show
} bind def

% Function footer (cf rf lf -> -)
/footer {
  fHelvetica fnfs 0.8 mul scalefont setfont
  dx dy moveto
  show

  snx sny moveto
  l-show
  
  fnx fny moveto
  c-show
} bind def

% Function print line number (<string> # -)
/# {
  gsave
    sx cw mul neg 2 div 0 rmoveto
    f# setfont
    c-show
  grestore
} bind def
%%BeginResource: procset a2ps-color-prolog 2.0 1

%% Definition of the color faces.
/p {
  0 0 0 FG
  false BG
  false UL
  false BX
  fCourier bfs scalefont setfont
  Show
} bind def

/sy {
  0 0 0 FG
  false BG
  fSymbol bfs scalefont setfont
  Show
} bind def

/k {
  false BG
  false UL
  false BX
  0 0 0.9 FG
  fCourier bfs scalefont setfont
  Show
} bind def

/K {
  false BG
  false UL
  false BX
  0 0 0.8 FG
  fCourier-Bold bfs scalefont setfont
  Show
} bind def

/c {
  false BG
  false UL
  false BX
  0.8 0 0 FG
  fCourier bfs scalefont setfont
  Show
} bind def

/C {
  false BG
  false UL
  false BX
  0.8 0 0 FG
  fCourier-Bold bfs scalefont setfont
  Show
} bind def

/l {
  0 0 0 FG
  0.8 0.8 0 true BG
  false UL
  false BX
  fCourier bfs scalefont setfont
  Show
} bind def

/L {
  0 0 0 FG
  1 1 0 true BG
  false UL
  false BX
  fCourier-Bold bfs scalefont setfont
  Show
} bind def

/str {
  false BG
  false UL
  false BX
  0 0.5 0 FG
  fTimes-Roman bfs scalefont setfont
  Show
} bind def

/e{
  1 0 0 true BG
  false UL
  true BX
  1 1 1 FG
  fHelvetica-Bold bfs scalefont setfont
  Show
} bind def

% Function print line number (<string> # -)
/# {
  gsave
    sx cw mul 2 div neg 0 rmoveto
    f# setfont
    0.8 0.1 0.1 FG
    c-show
  grestore
} bind def
%%EndResource
%%EndProlog
%%BeginSetup
%%IncludeResource: font Courier
%%IncludeResource: font Courier-Bold
%%IncludeResource: font Times-Roman
%%IncludeResource: font Symbol
%%BeginResource: encoding ISO-8859-1Encoding
/ISO-8859-1Encoding [
/.notdef /.notdef /.notdef /.notdef /.notdef /.notdef /.notdef /.notdef 
/.notdef /.notdef /.notdef /.notdef /.notdef /.notdef /.notdef /.notdef 
/.notdef /.notdef /.notdef /.notdef /.notdef /.notdef /.notdef /.notdef 
/.notdef /.notdef /.notdef /.notdef /.notdef /.notdef /.notdef /.notdef 
/space /exclam /quotedbl /numbersign /dollar /percent /ampersand /quoteright 
/parenleft /parenright /asterisk /plus /comma /minus /period /slash 
/zero /one /two /three /four /five /six /seven 
/eight /nine /colon /semicolon /less /equal /greater /question 
/at /A /B /C /D /E /F /G 
/H /I /J /K /L /M /N /O 
/P /Q /R /S /T /U /V /W 
/X /Y /Z /bracketleft /backslash /bracketright /asciicircum /underscore 
/quoteleft /a /b /c /d /e /f /g 
/h /i /j /k /l /m /n /o 
/p /q /r /s /t /u /v /w 
/x /y /z /braceleft /bar /braceright /asciitilde /.notdef 
/.notdef /.notdef /.notdef /.notdef /.notdef /.notdef /.notdef /.notdef 
/.notdef /.notdef /.notdef /.notdef /.notdef /.notdef /.notdef /.notdef 
/.notdef /.notdef /.notdef /.notdef /.notdef /.notdef /.notdef /.notdef 
/.notdef /.notdef /.notdef /.notdef /.notdef /.notdef /.notdef /.notdef 
/space /exclamdown /cent /sterling /currency /yen /brokenbar /section 
/dieresis /copyright /ordfeminine /guillemotleft /logicalnot /hyphen /registered /macron 
/degree /plusminus /twosuperior /threesuperior /acute /mu /paragraph /bullet 
/cedilla /onesuperior /ordmasculine /guillemotright /onequarter /onehalf /threequarters /questiondown 
/Agrave /Aacute /Acircumflex /Atilde /Adieresis /Aring /AE /Ccedilla 
/Egrave /Eacute /Ecircumflex /Edieresis /Igrave /Iacute /Icircumflex /Idieresis 
/Eth /Ntilde /Ograve /Oacute /Ocircumflex /Otilde /Odieresis /multiply 
/Oslash /Ugrave /Uacute /Ucircumflex /Udieresis /Yacute /Thorn /germandbls 
/agrave /aacute /acircumflex /atilde /adieresis /aring /ae /ccedilla 
/egrave /eacute /ecircumflex /edieresis /igrave /iacute /icircumflex /idieresis 
/eth /ntilde /ograve /oacute /ocircumflex /otilde /odieresis /divide 
/oslash /ugrave /uacute /ucircumflex /udieresis /yacute /thorn /ydieresis 
] def
%%EndResource
% Initialize page description variables.
/sh 842 def
/sw 595 def
/llx 24 def
/urx 571 def
/ury 818 def
/lly 24 def
/#copies 1 def
/th 20.000000 def
/fnfs 15 def
/bfs 11.199836 def
/cw 6.719901 def

% Dictionary for ISO-8859-1 support
/iso1dict 6 dict begin
  /fCourier ISO-8859-1Encoding /Courier reencode_font
  /fCourier-Bold ISO-8859-1Encoding /Courier-Bold reencode_font
  /fHelvetica ISO-8859-1Encoding /Helvetica reencode_font
  /fHelvetica-Bold ISO-8859-1Encoding /Helvetica-Bold reencode_font
  /fTimes-Bold ISO-8859-1Encoding /Times-Bold reencode_font
  /fTimes-Roman ISO-8859-1Encoding /Times-Roman reencode_font
currentdict end def
/bgcolor [ 0 0 0 ] def
/bg false def
/ul false def
/bx false def
% The font for line numbering
/f# /Helvetica findfont bfs .6 mul scalefont def
/fSymbol /Symbol findfont def
/hm fnfs 0.25 mul def
/pw
   cw 81.400000 mul
def
/ph
   747.029046 th add
def
/pmw 0 def
/pmh 0 def
/v 0 def
/x [
  0
] def
/y [
  pmh ph add 0 mul ph add
] def
/scx sw 2 div def
/scy sh 2 div def
/snx urx def
/sny lly 2 add def
/dx llx def
/dy sny def
/fnx scx def
/fny dy def
/lx snx def
/ly ury fnfs 0.8 mul sub def
/sx 0 def
/tab 8 def
/x0 0 def
/y0 0 def
%%EndSetup

%%Page: (1) 1
%%BeginPageSetup
/pagesave save def
%%EndPageSetup
iso1dict begin
gsave
llx lly 12 add translate
/v 0 store
/x0 x v get 4.703931 add sx cw mul add store
/y0 y v get bfs th add sub store
x0 y0 moveto
(#!/bin/env python3) c n
() p n
() N
(### Driver program for LAMMPS with extruders) c n
(### Runs in parallel using mpi4py) N
(### Requires LAMMPS to be built with new bond_style harmlj) N
() p n
(### Reads in two files specificed at command line:) c n
(###     ctcf.dat       -- a list of CTCF beads with probability and direction) N
(###     params.dat     -- a set of parameters for extrusion and switching) N
() p n
(### Extruders bind at random to beads i,i+3 \(compatible with crumpled polymer\)) c n
(### Step forward stochastically with some rate \(independant of configuration\)) N
(### Are halted by correctly oriented CTCFs, but move through otherwise) N
(### Unbind with some rate \(independant of CTCFs / polymer configuration\)) N
() p n
(### CTCF sites are populated stochastically based on probabilities in the file.) c n
() p n
(### Proteins with the specifed rates, with switching commands in an external fil) c n
(e.) N
() p n
() N
(## The way mpi4py works is that calls to the lammps library must be ) c n
(## made on all processes. The way I have written the code is that any ) N
(## reading/writting to files is done on rank 0. All stochastic stuff ) N
(## is also done on rank 0. Then I broadcast any variables which have ) N
(## changed before the next call to lammps. ) N
() p n
() N
(################################################################################) c n
(##########) N
(################################################################################) N
(##########) N
() p n
(import) K
( random) p n
(import) K
( sys, getopt) p n
(import) K
( numpy) p n
(import) K
( array) p n
(from) K
( mpi4py ) p
(import) K
( MPI) p n
(from) K
( lammps ) p
(import) K
( lammps) p n
() N
() N
(def) K
( idx\( id \):) p n
(    ) S
(return) K
( 3*id-3) p n
() N
(def) K
( idy\( id \):) p n
(    ) S
(return) K
( 3*id-2) p n
() N
(def) K
( idz\( id \):) p n
(    ) S
(return) K
( 3*id-1) p n
() N
(def) K
( sep\(l,r,coords,box\) :) p n
(    dx = coords[idx\(l\)]-coords[idx\(r\)]) N
(    ) S
(if) K
( \( abs\(dx\)>0.5*box[0] \) : ) p n
(        dx=box[0]-abs\(dx\)) N
(    dy = coords[idy\(l\)]-coords[idy\(r\)]) N
(    ) S
(if) K
( \( abs\(dy\)>0.5*box[1] \) : ) p n
(        dy=box[1]-abs\(dy\)) N
(    dz = coords[idz\(l\)]-coords[idz\(r\)]) N
(    ) S
(if) K
( \( abs\(dz\)>0.5*box[2] \) : ) p n
(        dz=box[2]-abs\(dz\)) N
(    ) S
(if) K
( \( numpy.sqrt\( dx*dx + dy*dy + dz*dz \)>50.0 \) :) p n
(        ) S
(print) K
(\(") p
(********************) str
(",dx,dy,dz\)) p n
(    ) S
(return) K
( numpy.sqrt\( dx*dx + dy*dy + dz*dz \)) p n
() N
() N
(run_extruders.py) (Page 1/10) (Jan 15, 20 13:33) title
border
grestore
(Printed by Michael Chiang) rhead
() (1/10) (Monday February 24, 2020) footer
end % of iso1dict
pagesave restore
showpage
%%Page: (2) 2
%%BeginPageSetup
/pagesave save def
%%EndPageSetup
iso1dict begin
gsave
llx lly 12 add translate
/v 0 store
/x0 x v get 4.703931 add sx cw mul add store
/y0 y v get bfs th add sub store
x0 y0 moveto
() p n
(### ----------------------------------------------------------------------------) c n
(----------------) N
(### --------- Main program -----------------------------------------------------) N
(----------------) N
(### ----------------------------------------------------------------------------) N
(----------------) N
() p n
() N
(# set up MPI \(it as initialised when the library was imported\) ) c n
(comm = MPI.COMM_WORLD ) p n
(me = comm.Get_rank\(\) ) N
(nprocs = comm.Get_size\(\)) N
() N
() N
(### ----- Parse command line --------------------------------) c n
() p n
(# Initialize command line parameters) c n
(quiet = False                          ) p
(# flag to switch off screen output) c n
(runnumber = 1                          ) p
(# an id number for input and output files) c n
(paramsfile = None) p n
(ctcffile = None) N
() N
(try) K
(:) p n
(    opts, args = getopt.getopt\(sys.argv[1:],") S
(p:c:qn:) str
(",\)) p n
(except) K
( getopt.GetoptError:) p n
(    ) S
(print) K
(\(') p
(run_extruders.sh -p <paramsfile> -c <ctcfile> [-q] [-n <runnumber>]) str
('\)) p n
(    ) S
(print) K
(\(') p
(      -p <paramsfile> a file with the extruder/switching parameters) str
('\)) p n
(    ) S
(print) K
(\(') p
(      -c <ctcfile>    a file with the CTCF beads) str
('\)) p n
(    ) S
(print) K
(\(') p
(      -q              runs quietly without output to screen) str
('\)) p n
(    ) S
(print) K
(\(') p
(      -n <runnumber>  specifies a run number, default 1.) str
('\)) p n
(    sys.exit\(1\)) N
(for) K
( opt, arg ) p
(in) K
( opts:) p n
(    ) S
(if) K
( \(opt==") p
(-p) str
("\):) p n
(        paramsfile = arg) N
(    ) S
(elif) K
( \(opt==") p
(-c) str
("\):) p n
(        ctcffile = arg) N
(    ) S
(elif) K
( \(opt==") p
(-q) str
("\):) p n
(        quiet = True) N
(    ) S
(elif) K
( \(opt==") p
(-n) str
("\):) p n
(        runnumber = int\(arg\)) N
() N
(if) K
( \(paramsfile==None ) p
(or) K
( ctcffile==None\):) p n
(    ) S
(print) K
(\(") p
(Error: must specify a parameters file and a CTCFs file.) str
("\)) p n
(    sys.exit\(1\)) N
() N
() N
() N
(### ----- Set parameters and read params file ---------------) c n
() p n
(# set some parameter values --- all times here are sumlation units \(NOT STEPS\)) c n
(dt = 0.01                                               ) p
(# time step in simulatio) c n
(n time units) N
(septhresh = 4                                           ) p
(# max distance for bond ) c n
(creation) N
(neighbour_length = 3.5                                  ) p
(# skin distance for neig) c n
(hbour list) N
(neigh_every = 20                                        ) p
(# parameter for neigh li) c n
(st rebuild) N
(neigh_delay = 20                                        ) p
(# parameter for neigh li) c n
(st rebuild) N
(extrdr_bnd_type = 3                                     ) p
(# bond type of extruders) c n
(extrdr_init_sep = 3                                     ) p
(# initial bead separatio) c n
(n of extruders) N
(dump_every_steps = 200000                               ) p
(# how often to dump \(in ) c n
(STEPS\)) N
(run_extruders.py) (Page 2/10) (Jan 15, 20 13:33) title
border
grestore
(Printed by Michael Chiang) rhead
() (Monday February 24, 2020) (2/10) footer
end % of iso1dict
pagesave restore
showpage
%%Page: (3) 3
%%BeginPageSetup
/pagesave save def
%%EndPageSetup
iso1dict begin
gsave
llx lly 12 add translate
/v 0 store
/x0 x v get 4.703931 add sx cw mul add store
/y0 y v get bfs th add sub store
x0 y0 moveto
(seeddir = ") p
(/Home/cbrackle/work/seeds) str
("                   ) p
(# directory for seeds) c n
() p n
(# and load some parameters from the file) c n
(Nbeads = None                                           ) p
(# number of DNA beads) c n
(Nextruders = None                                       ) p
(# number of extruders) c n
(update_interval = None                                  ) p
(# how often to update ex) c n
(truders in simulation time units) N
(extrude_interval = None                                 ) p
(# how often to move extr) c n
(uders ) N
(on_interval = None                                      ) p
(# how often attempt to a) c n
(dd extruder) N
(off_interval = None                                     ) p
(# how often attempt to r) c n
(emove extruder) N
(switch_interval = None                                  ) p
(# how often switch prote) c n
(in) N
(runtime = None                                          ) p
(# total tun time in simu) c n
(lation time units) N
() p n
(mapfile = ") S
(extruders_locations_%i.dat) str
("%runnumber      ) p
(# output file for extruders map) c n
() p n
(# get rest of parameter values from file) c n
(with open\(paramsfile, ") p
(r) str
("\) as pf:) p n
(    ) S
(for) K
( line ) p
(in) K
( pf:) p n
(        a = line.split\(\)) N
(        ) S
(if) K
( a[0]==") p
(nbeads) str
(":) p n
(            Nbeads = int\(a[1]\)) N
(        ) S
(elif) K
( a[0]==") p
(nextruders) str
(":) p n
(            Nextruders = int\(a[1]\)) N
(        ) S
(elif) K
( a[0]==") p
(extrude_interval) str
(":) p n
(            extrude_interval = float\(a[1]\)) N
(        ) S
(elif) K
( a[0]==") p
(update_interval) str
(":) p n
(            update_interval = float\(a[1]\)) N
(        ) S
(elif) K
( a[0]==") p
(on_interval) str
(":) p n
(            on_interval = float\(a[1]\)) N
(        ) S
(elif) K
( a[0]==") p
(off_interval) str
(":) p n
(            off_interval = float\(a[1]\)) N
(        ) S
(elif) K
( a[0]==") p
(switch_interval) str
(":) p n
(            switch_interval = float\(a[1]\)) N
(        ) S
(elif) K
( a[0]==") p
(runtime) str
(":) p n
(            runtime = int\(a[1]\)) N
(        ) S
(elif) K
( line[0]!=") p
(#) str
(" ) p
(or) K
( line==") p
(\\n) str
(":) p n
(            ) S
(print) K
(\(") p
(Error: unknown entry in parameters file: %s) str
("%a[0]\)) p n
(            sys.exit\(1\)) N
() N
(if) K
( Nbeads==None ) p
(or) K
( \\) p n
(   Nextruders==None ) S
(or) K
( \\) p n
(   extrude_interval==None ) S
(or) K
( \\) p n
(   update_interval==None ) S
(or) K
( \\) p n
(   on_interval==None ) S
(or) K
( \\) p n
(   off_interval==None ) S
(or) K
( \\) p n
(   switch_interval==None ) S
(or) K
( \\) p n
(   runtime==None:) N
(    ) S
(print) K
(\(") p
(Error: not all required parameters set in parameters file) str
("\)) p n
(    sys.exit\(1\)) N
() N
(# set some variables based on the parameters) c n
() p n
(runtime_steps = int\(runtime/dt\)                            ) S
(# runtime in timestep) c n
(s) N
(update_interval_steps = int\(update_interval/dt\)            ) p
(# how often to do an ) c n
(extruder update in timesteps) N
(Tintervals = int\(runtime_steps/update_interval_steps\)-1    ) p
(# number of times ext) c n
(ruders will be updated) N
() p n
(extruders_per_bead = Nextruders/Nbeads) N
(extrude_rate = 1.0/extrude_interval) N
(run_extruders.py) (Page 3/10) (Jan 15, 20 13:33) title
border
grestore
(Printed by Michael Chiang) rhead
() (3/10) (Monday February 24, 2020) footer
end % of iso1dict
pagesave restore
showpage
%%Page: (4) 4
%%BeginPageSetup
/pagesave save def
%%EndPageSetup
iso1dict begin
gsave
llx lly 12 add translate
/v 0 store
/x0 x v get 4.703931 add sx cw mul add store
/y0 y v get bfs th add sub store
x0 y0 moveto
(extrude_rate_steps = extrude_rate*dt                       ) p
(# rate at which extru) c n
(ders move in inverse timesteps) N
(step_prob = update_interval_steps*extrude_rate_steps    ) p
(# probability an extrude) c n
(r advances) N
() p n
(onrate = 1.0/on_interval) N
(offrate = 1.0/off_interval) N
(onrate_steps = onrate*dt                                   ) S
(# rate at which extru) c n
(ders attach in inverse timesteps) N
(offrate_steps = offrate*dt                                 ) p
(# rate at which extru) c n
(ders detach in inverse timesteps) N
(add_prob = update_interval_steps*onrate_steps           ) p
(# probability an extrude) c n
(r attaches) N
(remove_prob = update_interval_steps*offrate_steps       ) p
(# probability an extrude) c n
(r detaches) N
() p n
(switch_rate = 1.0/switch_interval) N
(switch_steps = switch_rate*dt                              ) N
(switch_prob = update_interval_steps*switch_steps        ) N
() N
(# get random number seed) c n
(with open\(") p
(%s/seed.%i) str
("%\(seeddir,runnumber\),") p
(r) str
("\) as sf:) p n
(    seed = int\( \(sf.read\(\)\).split\(\)[3] \)) N
(random.seed\(seed\)) N
() N
(# set up output streams for messages) c n
(if) K
( me==0: ) p n
(    ) S
(if) K
( \(quiet == False\) :) p n
(        ostreams = [sys.stdout, open\(") S
(extruders_%i.log) str
("%runnumber,") p
(w) str
("\)]) p n
(    ) S
(else) K
( :) p n
(        ostreams = [open\(") S
(extruders_%i.log) str
("%runnumber,") p
(w) str
("\)]) p n
(else) K
(:     ) p n
(    ostreams = []) N
() N
() N
(### ----- Read CTCFs file and set up CTCFs ------------------) c n
() p n
(# load CTCF information) c n
(sitesCTCF = [") p
(0) str
(" ) p
(for) K
( i ) p
(in) K
( range\(Nbeads+1\)]) p n
(scoresCTCF = array.array\(') S
(f) str
(', [0.0] * int\(Nbeads+1\) \) ) p
(#[0.0 for i in range\(Nbead) c n
(s+1\)]) N
(ctcfsitescounter = 0) p n
(with open\(ctcffile,') S
(r) str
('\) as cf:) p n
(    ) S
(for) K
( line ) p
(in) K
( cf:) p n
(        a = line.split\(\)  ) N
(        bd = int\(a[0]\)) N
(        ) S
(if) K
( \( bd<1 ) p
(or) K
( bd>Nbeads \):) p n
(            ) S
(print) K
(\(") p
(Error: incorrect entry in ctcfs file \(bead id\)) str
("\)) p n
(            sys.exit\(1\)) N
(        ) S
(if) K
( a[1]==") p
(+) str
(":) p n
(            sitesCTCF[bd] = ") S
(F) str
(") p n
(        ) S
(elif) K
( a[1]==") p
(-) str
(":) p n
(            sitesCTCF[bd] = ") S
(R) str
(") p n
(        ) S
(elif) K
( a[1]==") p
(.) str
(":) p n
(            sitesCTCF[bd] = ") S
(B) str
(") p n
(        ) S
(else) K
(:) p n
(            ) S
(print) K
(\(") p
(Error: incorrect entry in ctcfs file \(direction\)) str
("\)) p n
(            sys.exit\(1\)) N
(        sc = float\(a[2]\)) N
(        ) S
(if) K
( sc<0 ) p
(or) K
( sc>1:) p n
(            ) S
(print) K
(\(") p
(Error: incorrect entry in ctcfs file \(probability\)) str
("\)) p n
(            sys.exit\(1\)) N
(        scoresCTCF[bd] = sc) N
(        ctcfsitescounter += 1) N
() N
(# stochastically assign CTCFs ) c n
(run_extruders.py) (Page 4/10) (Jan 15, 20 13:33) title
border
grestore
(Printed by Michael Chiang) rhead
() (Monday February 24, 2020) (4/10) footer
end % of iso1dict
pagesave restore
showpage
%%Page: (5) 5
%%BeginPageSetup
/pagesave save def
%%EndPageSetup
iso1dict begin
gsave
llx lly 12 add translate
/v 0 store
/x0 x v get 4.703931 add sx cw mul add store
/y0 y v get bfs th add sub store
x0 y0 moveto
(if) K
( me==0:) p n
(    CTCF = array.array\(') S
(h) str
(', [0] * int\(Nbeads+1\) \) ) p
(#["0" for i in range\(Nbeads+1\)) c n
(]) N
(    ctcffilledcounter = 0) p n
(    ) S
(for) K
( i ) p
(in) K
( range\(0,len\(scoresCTCF\)\):) p n
(        ) S
(if) K
( \( sitesCTCF[i]!=") p
(0) str
(" ) p
(and) K
( random.random\(\) < scoresCTCF[i] \):) p n
(            ) S
(if) K
( sitesCTCF[i]==") p
(B) str
(":) p n
(                ) S
(# if a peak is BOTH, then select ) c n
(                ) p
(# F,R or B with 1:1:2 ratio ) c n
(                ) p
(# Why? I don't know.) c n
(                ) p
(if) K
( random.random\(\) < 0.5:) p n
(                    CTCF[i]=2) N
(                ) S
(else) K
(:) p n
(                    ) S
(if) K
( random.random\(\) < 0.5:) p n
(                        CTCF[i]=1) N
(                    ) S
(else) K
(:) p n
(                        CTCF[i]=-1) N
(            ) S
(else) K
(:) p n
(                ) S
(if) K
( sitesCTCF[i]==") p
(F) str
(":) p n
(                    CTCF[i]=1) N
(                ) S
(elif) K
( sitesCTCF[i]==") p
(R) str
(":) p n
(                    CTCF[i]=-1) N
(            ctcffilledcounter += 1) N
(else) K
(:     ) p n
(    CTCF = None ) N
(CTCF = comm.bcast\(CTCF, root=0\)) N
() N
() N
(### ----- Set up arrays for run -----------------------------) c n
() p n
() N
(# set up arrays for extruders) c n
(left = array.array\(') p
(i) str
('\) ) p n
(right = array.array\(') S
(i) str
('\) ) p n
() N
(# set up arrays for beads, and where CTCFs are) c n
(occupied = array.array\(') p
(H) str
(', [0] * int\(Nbeads+1\) \) ) p n
() N
() N
() N
(### ----- Set up outputs ------------------------------------) c n
() p n
(# write output for where CTCFs were filled) c n
(if) K
( me==0:) p n
(    ctcfoutput = open\(") S
(CTCF_map_%i.dat) str
("%runnumber,") p
(w) str
("\)) p n
(    ) S
(for) K
( i ) p
(in) K
( range\(1,len\(CTCF\)\):) p n
(        ctcfoutput.write\(") S
(%i %s\\n) str
("%\(i,CTCF[i]\)\)) p n
(    ctcfoutput.close\(\)) N
() N
(# set up output file for extruders) c n
(if) K
( me==0:) p n
(    allextrudefile = open\(mapfile,") S
(w) str
("\)) p n
(    allextrudefile.write\(") S
(# timestep, left side, right side\\n) str
("\)) p n
() N
() N
() N
(### ----- Set up LAMMPS -------------------------------------) c n
() p n
(# initialize LAMMPS ) c n
(lmp = lammps\(cmdargs=[") p
(-screen) str
(",") p
(screen.%i.log) str
("%runnumber,") p
(-log) str
(",") p
(log.%i.log) str
("%runnumber]\)) p n
(#lmp = lammps\(cmdargs=["-log","log.%i.log"%runnumber]\)) c n
() p n
(lmp.commands_list\([") S
(units lj) str
(",) p n
(                   ") S
(atom_style angle) str
(",) p n
(                   ") S
(boundary p p p) str
("]\)) p n
() N
(run_extruders.py) (Page 5/10) (Jan 15, 20 13:33) title
border
grestore
(Printed by Michael Chiang) rhead
() (5/10) (Monday February 24, 2020) footer
end % of iso1dict
pagesave restore
showpage
%%Page: (6) 6
%%BeginPageSetup
/pagesave save def
%%EndPageSetup
iso1dict begin
gsave
llx lly 12 add translate
/v 0 store
/x0 x v get 4.703931 add sx cw mul add store
/y0 y v get bfs th add sub store
x0 y0 moveto
(# set some LAMMPS parameters) c n
() p n
(# run number) c n
(lmp.command\(") p
(variable runnumber equal %i) str
("%runnumber\)) p n
() N
(# neighbour parameters) c n
(lmp.commands_list\([") p
(neighbor %f bin) str
("%neighbour_length,) p n
(                   ") S
(neigh_modify every %i delay %i check yes) str
("%\(neigh_every,neigh_delay\)]\),) p n
(#"comm_modify cutoff %f"%\(neighbour_length+2.5\)]\)) c n
() p n
(#set seed) c n
(lmp.command\(") p
(variable seed equal %i) str
("%seed\)) p n
(# and set up a random number generator for switching) c n
(lmp.command\(") p
(variable switchseed equal floor\(random\(1000,99999,%i\)\)) str
("%\(seed*2\)\)) p n
() N
(# set from file: initial conditions / groups / force field / fixes / outputs) c n
(lmp.file\(") p
(in.initial) str
("\)) p n
() N
(# time step) c n
(lmp.command\(") p
(timestep %f) str
("%dt\)) p n
() N
(# switching rate) c n
(lmp.command\(") p
(variable k equal %f ) str
("%switch_prob\)) p n
() N
() N
(# get some parameters from LAMMPS) c n
(boxsize = [ lmp.extract_global\(") p
(boxxhi) str
(",1\)-lmp.extract_global\(") p
(boxxlo) str
(",1\) , lmp.ex) p n
(tract_global\(") S
(boxyhi) str
(",1\)-lmp.extract_global\(") p
(boxylo) str
(",1\), lmp.extract_global\(") p
(boxzhi) str
(") p n
(,1\)-lmp.extract_global\(") S
(boxzlo) str
(",1\) ]) p n
() N
(initialNbonds =  lmp.extract_global\(") S
(nbonds) str
(",0\) ) p n
() N
(totalatoms = lmp.extract_global\(") S
(natoms) str
(",0\) ) p n
(Nprots = totalatoms - Nbeads) N
() N
() N
(### ----- Write some messages to scree and/or log file ------) c n
() p n
(# write a message) c n
(if) K
( me==0:) p n
(    ) S
(for) K
( messages ) p
(in) K
( ostreams:) p n
(        messages.write\(") S
(#******************************************************************) str n
(***********************\\n) S
("\)) p n
(        messages.write\(") S
(#  Running simulation %i on %i processors with %i polymer beads\\n) str
("%\(runnum) p n
(ber,nprocs,Nbeads\)\)) N
(        messages.write\(") S
(#                                              %i switching proteins\\n) str
("%Nprots\)) p n
(        messages.write\(") S
(#                                              %i extruders\\n) str
("%Nextruders\)) p n
(        messages.write\(") S
(#                                          for %i time steps\\n) str
("%runtime_steps\)) p n
(        messages.write\(") S
(#\\n) str
("\)) p n
(        messages.write\(") S
(#  extruders are updated every %i timesteps\\n) str
("%update_interval_steps\)) p n
(        messages.write\(") S
(#  extruders advance every %f timesteps\\n) str
("%\(1.0/extrude_rate_steps\)\)) p n
(        messages.write\(") S
(#  extruders detach after %f timesteps\\n) str
("%\(1.0/offrate_steps\)\)) p n
(        messages.write\(") S
(#     after travelling on average %f beads\\n) str
("%\(extrude_rate/offrate\)\)) p n
(        messages.write\(") S
(#  free extruders attach after %f timesteps\\n) str
("%\(1.0/onrate_steps\)\)) p n
(        messages.write\(") S
(#  bridges switch on average every %f timesteps\\n) str
("%\(1.0/switch_steps\)\)) p n
(        messages.write\(") S
(#\\n) str
("\)) p n
(        messages.write\(") S
(# Probabilities: \(try to keep these small\)\\n) str
("\)) p n
(        messages.write\(") S
(#  step_prob = %f\\n) str
("%step_prob\)) p n
(        messages.write\(") S
(#  add_prob = %f\\n) str
("%add_prob\)) p n
(        messages.write\(") S
(#  remove_prob = %f\\n) str
("%remove_prob\)) p n
(        messages.write\(") S
(#  switch_prob = %f       \(%f proteins switch on each attempt\)\\n) str
("%\(switch_pro) p n
(b,switch_prob*Nprots\)\)) N
(        messages.write\(") S
(#  random seed = %i\\n) str
("%seed\)) p n
(        messages.write\(") S
(#\\n) str
("\)) p n
(        messages.write\(") S
(#  %i out of %i CTCF sites have been stochatically filled\\n) str
("%\(ctcffilledcou) p n
(nter,ctcfsitescounter\)\)) N
(run_extruders.py) (Page 6/10) (Jan 15, 20 13:33) title
border
grestore
(Printed by Michael Chiang) rhead
() (Monday February 24, 2020) (6/10) footer
end % of iso1dict
pagesave restore
showpage
%%Page: (7) 7
%%BeginPageSetup
/pagesave save def
%%EndPageSetup
iso1dict begin
gsave
llx lly 12 add translate
/v 0 store
/x0 x v get 4.703931 add sx cw mul add store
/y0 y v get bfs th add sub store
x0 y0 moveto
(        messages.write\(") p
(#******************************************************************) str n
(***********************\\n\\n) S
("\)) p n
() N
() N
(### ----- Do an intial run without extruders or sticky beads ----------------) c n
() p n
(lmp.command\(") S
(run %i) str
("%update_interval_steps\)) p n
() N
() N
(if) K
( \( len\(left\) != lmp.extract_global\(") p
(nbonds) str
(",0\)-initialNbonds \) :) p n
(    ) S
(print) K
(\(") p
(ERROR - lost some bonds) str
("\)) p n
(    sys.exit\(1\)) N
() N
() N
(### ----- Switch on bead attractions ------------------------) c n
() p n
(## Actually, lets run with extruders only for the first million steps) c n
(#lmp.file\("in.attraction"\)) N
() p n
() N
(### ----- Switch on dumping ------------------) c n
() p n
(lmp.command\(") S
(dump dmp all custom %i dump.%i.DNA id type xs ys zs ix iy iz) str
("%\(dump_every_steps,runn) p n
(umber\)\)) N
() N
() N
() N
(### ----- Do the rest of the run ----------------------------) c n
() p n
(# run subsequent steps, updating according to step_prob) c n
(for) K
( step ) p
(in) K
( range\(1,Tintervals\):) p n
(    ) S
(if) K
( \(me == 0 ) p
(and) K
( quiet == False ) p
(and) K
( step%1==0\):) p n
(        sys.stdout.write\(") S
(running %i   \( %.2f %% done \)     \\r) str
("%\(step*update_interval_steps,) p n
(100.0*\(step\)/float\(Tintervals\)\)\)) N
(        sys.stdout.flush\(\)) N
(        allextrudefile.flush\(\) ) S
(# also flush the buffer for the extruders log) c n
() p n
(    ) S
(# switch on attraction after 1 million steps) c n
(    ) p
(if) K
( step*update_interval_steps==1e6:) p n
(        lmp.file\(") S
(in.attraction) str
("\)) p n
() N
(    coords = lmp.gather_atoms\(") S
(x) str
(",1,3\)) p n
() N
(    ) S
(# output extruders positions) c n
(    ) p
(if) K
( me==0:) p n
(        ) S
(for) K
( i ) p
(in) K
( range\(0,len\(left\)\): ) p n
(            allextrudefile.write\(") S
(%i %i %i\\n) str
(" %\(step*update_interval_steps,left[i]) p n
(,right[i]\) \)) N
() N
() N
(    ) S
(# count the number of lammps commands issued in this round) c n
(    flag_didAcommand = 0) p n
() N
(    ) S
(# remove extruders) c n
(    commandslist = []     ) p n
(    ) S
(if) K
( me==0:) p n
(        ) S
(for) K
( j ) p
(in) K
( range\(0,len\(left\)\):) p n
(            ) S
(if) K
( \( random.random\(\) < remove_prob \):) p n
(                commandslist.append\( ") S
(group newbond id %i %i) str
(" % \(left[j],right[j]\) \) ) p n
(  ) S
(# delete the old bonds) c n
(                commandslist.append\(") p
(delete_bonds newbond bond %i remove special) str
("%extrdr_bn) p n
(d_type\) ) S
(# need special so that bond lists are recalculated properly) c n
(                commandslist.append\(") p
(group newbond delete) str
("\)) p n
(                occupied[left[j]]=0) N
(                occupied[right[j]]=0) N
(                left[j]=-1) N
(run_extruders.py) (Page 7/10) (Jan 15, 20 13:33) title
border
grestore
(Printed by Michael Chiang) rhead
() (7/10) (Monday February 24, 2020) footer
end % of iso1dict
pagesave restore
showpage
%%Page: (8) 8
%%BeginPageSetup
/pagesave save def
%%EndPageSetup
iso1dict begin
gsave
llx lly 12 add translate
/v 0 store
/x0 x v get 4.703931 add sx cw mul add store
/y0 y v get bfs th add sub store
x0 y0 moveto
(                right[j]=-1) p n
(        left = array.array\(') S
(i) str
(',[value ) p
(for) K
( value ) p
(in) K
( left ) p
(if) K
( value != -1]\)) p n
(        right = array.array\(') S
(i) str
(',[value ) p
(for) K
( value ) p
(in) K
( right ) p
(if) K
( value != -1]\)) p n
(    ) S
(# collect arrays and commands list) c n
(    left = comm.bcast\(left, root=0\) ) p
(# left can change size, so have to use slow ) c n
(pickle version bcast    ) N
(    right = comm.bcast\(right, root=0\) ) p
(# right can change size, so have to use sl) c n
(ow pickle version bcast    ) N
(    comm.Bcast\(occupied, root=0\) ) p
(#occupied = comm.bcast\(occupied, root=0\)  ) c n
(    commandslist = comm.bcast\(commandslist, root=0\)     ) p n
(    ) S
(# now do lammps commands on all procs   ) c n
(    ) p
(if) K
( len\(commandslist\)>0:) p n
(        ) S
(#commandslist.append\("delete_bonds newbond bond %i remove special"%extrd) c n
(r_bnd_type\) # need special so that bond lists are recalculated properly) N
(        ) p
(#commandslist.append\("group newbond delete"\)) c n
(        lmp.commands_list\(commandslist\)) p n
(        flag_didAcommand += 1 ) N
() N
() N
(    ) S
(# update extruders ) c n
(    commandsREMlist = []) p n
(    commandsADDlist = []) N
(    ) S
(if) K
( me==0:) p n
(        ) S
(for) K
( j ) p
(in) K
( range\(0,len\(left\)\):      ) p
(# left and right get updated here, but) c n
( the length and order do not change) N
(            lastleft = left[:]) p n
(            lastright = right[:]) N
(            ) S
(if) K
( \( left[j]-1>0 ) p
(and) K
( occupied[left[j]-1]==0 ) p
(and) K
( CTCF[left[j]-1]!=1 ) p
(a) K n
(nd) S
( CTCF[left[j]-1]!=2 ) p
(and) K
( ) p n
(                 random.random\(\) < step_prob \):) N
(                occupied[left[j]] = 0) N
(                left[j] -= 1) N
(                occupied[left[j]] = 1) N
(            ) S
(if) K
( \( right[j]+1<=Nbeads ) p
(and) K
( occupied[right[j]+1]==0 ) p
(and) K
( CTCF[right[j) p n
(]+1]!=-1 ) S
(and) K
( CTCF[right[j]+1]!=2 ) p
(and) K
( ) p n
(                 random.random\(\) < step_prob\):) N
(                occupied[right[j]] = 0) N
(                right[j] += 1) N
(                occupied[right[j]] = 1) N
(            ) S
(if) K
( \( lastleft[j]!=left[j] ) p
(or) K
( lastright[j]!=right[j] \):) p n
(                ) S
(if) K
( \( sep\(left[j],right[j],coords,boxsize\) > septhresh \):) p n
(                    ) S
(print) K
(\(") p
(ERROR - bond cannot be made. Separation is ) str
(",sep\(left[j],right[j) p n
(],coords,boxsize\),boxsize[0],boxsize[1],boxsize[2]\)) N
(                    ) S
(print) K
(\(left[j],right[j],sep\(left[j],right[j],coords,boxsize\),) p n
(") S
(update) str
("\)) p n
(                    sys.exit\(1\)) N
(                commandsREMlist.append\(") S
(group newbond id %i %i) str
(" % \(lastleft[j],lastri) p n
(ght[j]\) \) ) S
(# delete the old bonds) c n
(                commandsREMlist.append\(") p
(delete_bonds newbond bond %i remove special) str
("%extrdr) p n
(_bnd_type\) ) S
(# need special so that bond lists are recalculated properly) c n
(                commandsREMlist.append\(") p
(group newbond delete) str
("\)) p n
() N
(                ) S
(#commandsADDlist.append\("create_bonds single/bond %i %i %i speci) c n
(al no"%\(extrdr_bnd_type,left[j],right[j]\)\) # special no here, but special yes fo) N
(r the last bond to be added) N
(                commandsADDlist.append\( ") p
(group newbond id %i %i) str
(" % \(left[j],right[j]\)) p n
( \) ) S
(# add a new bonds                 ) c n
(                commandsADDlist.append\( ") p
(create_bonds many newbond newbond %i 0.0 %f) str
("%\(ex) p n
(trdr_bnd_type,septhresh\) \)                 ) N
(                commandsADDlist.append\( ") S
(group newbond delete) str
(" \)) p n
(    ) S
(# collect arrays and commands list) c n
(    ) p
(# \(can use fast Bcast version since left and right do not change size\) ) c n
(    comm.Bcast\(left, root=0\) ) p
(#left = comm.bcast\(left, root=0\)     ) c n
(    comm.Bcast\(right, root=0\) ) p
(#right = comm.bcast\(right, root=0\)  ) c n
(    comm.Bcast\(occupied, root=0\) ) p
(#occupied = comm.bcast\(occupied, root=0\)       ) c n
(    commandsREMlist = comm.bcast\(commandsREMlist, root=0\) ) p n
(run_extruders.py) (Page 8/10) (Jan 15, 20 13:33) title
border
grestore
(Printed by Michael Chiang) rhead
() (Monday February 24, 2020) (8/10) footer
end % of iso1dict
pagesave restore
showpage
%%Page: (9) 9
%%BeginPageSetup
/pagesave save def
%%EndPageSetup
iso1dict begin
gsave
llx lly 12 add translate
/v 0 store
/x0 x v get 4.703931 add sx cw mul add store
/y0 y v get bfs th add sub store
x0 y0 moveto
(    commandsADDlist = comm.bcast\(commandsADDlist, root=0\) ) p n
(    ) S
(# now do lammps commands on all procs) c n
(    ) p
(if) K
( len\(commandsREMlist\)>0:) p n
(        ) S
(#commandsREMlist.append\("delete_bonds newbond bond %i remove special"%ex) c n
(trdr_bnd_type\) # need special so that bond lists are recalculated properly) N
(        ) p
(#commandsREMlist.append\("group newbond delete"\)) c n
(        lmp.commands_list\(commandsREMlist\)) p n
(        ) S
(#commandsADDlist[-1] = commandsADDlist[-1].replace\("special no","special) c n
( yes"\) # recalculate special list just on the last change to the bonds list) N
(        lmp.commands_list\(commandsADDlist\)) p n
(        flag_didAcommand += 1 ) N
() N
(    ) S
(# add extruders) c n
(    commandslist = []     ) p n
(    ) S
(if) K
( me==0:) p n
(        ) S
(for) K
( i ) p
(in) K
( range\(0,Nextruders-len\(left\)\):) p n
(            ) S
(if) K
( \( random.random\(\) < add_prob \):) p n
(                where = random.randrange\(1,Nbeads-1-extrdr_init_sep\)) N
(                ) S
(if) K
( \( occupied[ where:where+extrdr_init_sep+1 ] == array.array\(') p
() str n
(H) S
(',[0]*\(extrdr_init_sep+1\)\) ) p
(and) K
( ) p n
(                     CTCF[ where:where+extrdr_init_sep+1 ] == array.array\(') S
(h) str
(',[0) p n
(]*\(extrdr_init_sep+1\)\) \):) N
(                    left.append\(where\)) N
(                    right.append\(where+extrdr_init_sep\)) N
(                    occupied[ left[-1] ]=1) N
(                    occupied[ right[-1] ]=1) N
(                    ) S
(#commandslist.append\("create_bonds single/bond %i %i %i spec) c n
(ial no" % \(extrdr_bnd_type,left[-1],right[-1]\) \) # add the new bond) N
(                    commandslist.append\( ") p
(group newbond id %i %i) str
(" % \(left[-1],right[-) p n
(1]\) \) ) S
(# add a new bonds                 ) c n
(                    commandslist.append\( ") p
(create_bonds many newbond newbond %i 0.0 %f) str
("%\(e) p n
(xtrdr_bnd_type,septhresh\) \)                 ) N
(                    commandslist.append\( ") S
(group newbond delete) str
(" \)) p n
(    ) S
(# collect arrays and commands list ) c n
(    left = comm.bcast\(left, root=0\) ) p
(# left can change size, so have to use slow ) c n
(pickle version bcast) N
(    right = comm.bcast\(right, root=0\) ) p
(# right can change size, so have to use sl) c n
(ow pickle version bcast    ) N
(    comm.Bcast\(occupied, root=0\) ) p
(#occupied = comm.bcast\(occupied, root=0\)) c n
(    commandslist = comm.bcast\(commandslist, root=0\)     ) p n
(    ) S
(# now do lammps commands on all procs) c n
(    ) p
(if) K
( len\(commandslist\)>0:) p n
(        ) S
(# recalculate special list just on the last change to the bonds list) c n
(        ) p
(#commandslist[-1] = commandslist[-1].replace\("special no","special yes"\)) c n
( ) N
(        lmp.commands_list\(commandslist\)) p n
(        flag_didAcommand += 1 ) N
() N
() N
(    ) S
(# Check we have the right number of bonds) c n
(    ) p
(if) K
( \( len\(left\) != lmp.extract_global\(") p
(nbonds) str
(",0\)-initialNbonds \) :) p n
(        ) S
(print) K
(\(") p
(ERROR - lost some bonds \(add\)) str
("\)) p n
(        sys.exit\(1\)) N
() N
(    ) S
(# Check we have the right number of extruders) c n
(    ) p
(if) K
( \( len\(left\)>Nextruders \) :) p n
(        ) S
(print) K
(\(") p
(ERROR - too many extruders) str
("\)) p n
(        sys.exit\(1\)) N
() N
(    ) S
(# do switching) c n
(    lmp.file\(") p
(switch.lam) str
("\)) p n
() N
(    ) S
(# do the run) c n
(    ) p
(#comm.Barrier\(\)     ) c n
(    ) p
(if) K
( flag_didAcommand == 0:    ) p n
(        ) S
(# if nothing has changed, can skip setup before run         ) c n
(run_extruders.py) (Page 9/10) (Jan 15, 20 13:33) title
border
grestore
(Printed by Michael Chiang) rhead
() (9/10) (Monday February 24, 2020) footer
end % of iso1dict
pagesave restore
showpage
%%Page: (10) 10
%%BeginPageSetup
/pagesave save def
%%EndPageSetup
iso1dict begin
gsave
llx lly 12 add translate
/v 0 store
/x0 x v get 4.703931 add sx cw mul add store
/y0 y v get bfs th add sub store
x0 y0 moveto
(        lmp.command\(") p
(run %i pre no post no) str
("%update_interval_steps\)     ) p n
(    ) S
(else) K
(: ) p
(# in both cases do set 'post no' to skip calculating timing stats     ) c n
(        lmp.command\(") p
(run %i post no) str
("%update_interval_steps\)) p n
() N
() N
(# run a final timestep with post set to yes to calculate timing stats ) c n
(lmp.command\(") p
(run 1 pre no post yes) str
("\)) p n
( ) N
() N
(# remove all extruder bonds before writting restart) c n
(commandsREMlist = []) p n
(commandsREMlist.append\(") S
(group newbond id <> 1 %i) str
(" %\(Nbeads\) \) ) p
(# delete the old bonds) c n
(commandsREMlist.append\(") p
(delete_bonds newbond bond %i remove special) str
("%extrdr_bnd_type\) ) p
(# nee) c n
(d special so that bond lists are recalculated properly) N
(commandsREMlist.append\(") p
(group newbond delete) str
("\)) p n
() N
(lmp.command\(") S
(write_restart end.%i.restart) str
("%runnumber\)) p n
(lmp.close\(\)  ) N
() N
(if) K
( me==0:) p n
(    allextrudefile.close\(\)) N
() N
(if) K
( quiet == False ) p
(and) K
( me==0:) p n
(    ) S
(print) K
(\(""\)) p n
(    ) S
(print) K
(\(") p
(Sucsess!) str
("\)) p n
() N
(sys.exit\(0\)) N
() N
() N
(run_extruders.py) (Page 10/10) (Jan 15, 20 13:33) title
border
grestore
(Printed by Michael Chiang) rhead
() (Monday February 24, 2020) (10/10) footer
end % of iso1dict
pagesave restore
showpage

%%Trailer
end
%%EOF
